<svg width="12" height="30" viewBox="0 0 12 30" fill="none" xmlns="http://www.w3.org/2000/svg">
<circle cx="6" cy="14" r="5" stroke="context-fill" stroke-width="2"/>
<rect x="5" y="20" width="2" height="10" fill="context-fill"/>
</svg>
