{
  "_comment": "Used for dev build, replaced for release builds in tor-browser-build. This file is copied from tor-browser-build 0554d981:projects/tor-expert-bundle/pt_config.json",
  "recommendedDefault" : "obfs4",
  "pluggableTransports" : {
    "lyrebird" : "ClientTransportPlugin meek_lite,obfs2,obfs3,obfs4,scramblesuit exec ${pt_path}lyrebird${pt_extension}",
    "snowflake" : "ClientTransportPlugin snowflake exec ${pt_path}snowflake-client${pt_extension}",
    "webtunnel" : "ClientTransportPlugin webtunnel exec ${pt_path}webtunnel-client${pt_extension}",
    "conjure" : "ClientTransportPlugin conjure exec ${pt_path}conjure-client${pt_extension} -registerURL https://registration.refraction.network/api"
  },
  "bridges" : {
    "meek-azure" : [
      "meek_lite 192.0.2.18:80 BE776A53492E1E044A26F17306E1BC46A55A1625 url=https://meek.azureedge.net/ front=ajax.aspnetcdn.com"
    ],
    "obfs4" : [
      "obfs4 192.95.36.142:443 CDF2E852BF539B82BD10E27E9115A31734E378C2 cert=qUVQ0srL1JI/vO6V6m/24anYXiJD3QP2HgzUKQtQ7GRqqUvs7P+tG43RtAqdhLOALP7DJQ iat-mode=1",
      "obfs4 37.218.245.14:38224 D9A82D2F9C2F65A18407B1D2B764F130847F8B5D cert=bjRaMrr1BRiAW8IE9U5z27fQaYgOhX1UCmOpg2pFpoMvo6ZgQMzLsaTzzQNTlm7hNcb+Sg iat-mode=0",
      "obfs4 85.31.186.98:443 011F2599C0E9B27EE74B353155E244813763C3E5 cert=ayq0XzCwhpdysn5o0EyDUbmSOx3X/oTEbzDMvczHOdBJKlvIdHHLJGkZARtT4dcBFArPPg iat-mode=0",
      "obfs4 85.31.186.26:443 91A6354697E6B02A386312F68D82CF86824D3606 cert=PBwr+S8JTVZo6MPdHnkTwXJPILWADLqfMGoVvhZClMq/Urndyd42BwX9YFJHZnBB3H0XCw iat-mode=0",
      "obfs4 193.11.166.194:27015 2D82C2E354D531A68469ADF7F878FA6060C6BACA cert=4TLQPJrTSaDffMK7Nbao6LC7G9OW/NHkUwIdjLSS3KYf0Nv4/nQiiI8dY2TcsQx01NniOg iat-mode=0",
      "obfs4 193.11.166.194:27020 86AC7B8D430DAC4117E9F42C9EAED18133863AAF cert=0LDeJH4JzMDtkJJrFphJCiPqKx7loozKN7VNfuukMGfHO0Z8OGdzHVkhVAOfo1mUdv9cMg iat-mode=0",
      "obfs4 193.11.166.194:27025 1AE2C08904527FEA90C4C4F8C1083EA59FBC6FAF cert=ItvYZzW5tn6v3G4UnQa6Qz04Npro6e81AP70YujmK/KXwDFPTs3aHXcHp4n8Vt6w/bv8cA iat-mode=0",
      "obfs4 209.148.46.65:443 74FAD13168806246602538555B5521A0383A1875 cert=ssH+9rP8dG2NLDN2XuFw63hIO/9MNNinLmxQDpVa+7kTOa9/m+tGWT1SmSYpQ9uTBGa6Hw iat-mode=0",
      "obfs4 146.57.248.225:22 10A6CD36A537FCE513A322361547444B393989F0 cert=K1gDtDAIcUfeLqbstggjIw2rtgIKqdIhUlHp82XRqNSq/mtAjp1BIC9vHKJ2FAEpGssTPw iat-mode=0",
      "obfs4 45.145.95.6:27015 C5B7CD6946FF10C5B3E89691A7D3F2C122D2117C cert=TD7PbUO0/0k6xYHMPW3vJxICfkMZNdkRrb63Zhl5j9dW3iRGiCx0A7mPhe5T2EDzQ35+Zw iat-mode=0",
      "obfs4 51.222.13.177:80 5EDAC3B810E12B01F6FD8050D2FD3E277B289A08 cert=2uplIpLQ0q9+0qMFrK5pkaYRDOe460LL9WHBvatgkuRr/SL31wBOEupaMMJ6koRE6Ld0ew iat-mode=0"
    ],
    "snowflake" : [
      "snowflake 192.0.2.3:80 2B280B23E1107BB62ABFC40DDCC8824814F80A72 fingerprint=2B280B23E1107BB62ABFC40DDCC8824814F80A72 url=https://1098762253.rsc.cdn77.org/ fronts=www.cdn77.com,www.phpmyadmin.net ice=stun:stun.l.google.com:19302,stun:stun.antisip.com:3478,stun:stun.bluesip.net:3478,stun:stun.dus.net:3478,stun:stun.epygi.com:3478,stun:stun.sonetel.com:3478,stun:stun.uls.co.za:3478,stun:stun.voipgate.com:3478,stun:stun.voys.nl:3478 utls-imitate=hellorandomizedalpn",
      "snowflake 192.0.2.4:80 8838024498816A039FCBBAB14E6F40A0843051FA fingerprint=8838024498816A039FCBBAB14E6F40A0843051FA url=https://1098762253.rsc.cdn77.org/ fronts=www.cdn77.com,www.phpmyadmin.net ice=stun:stun.l.google.com:19302,stun:stun.antisip.com:3478,stun:stun.bluesip.net:3478,stun:stun.dus.net:3478,stun:stun.epygi.com:3478,stun:stun.sonetel.net:3478,stun:stun.uls.co.za:3478,stun:stun.voipgate.com:3478,stun:stun.voys.nl:3478 utls-imitate=hellorandomizedalpn"
    ]
  }
}
