<svg width="44" height="44" viewBox="0 0 44 44" fill="none" xmlns="http://www.w3.org/2000/svg">
<defs>
  <filter id="ring-blur" x="0" y="0" width="44" height="44" filterUnits="userSpaceOnUse" color-interpolation-filters="sRGB">
    <feColorMatrix in="SourceGraphic" type="matrix" values="1 0 0 0 0 0 1 0 0 0 0 0 1 0 0 0 0 0 0.5 0"/>
    <feGaussianBlur stdDeviation="2"/>
    <feBlend mode="normal" in="SourceGraphic"/>
  </filter>
</defs>
<g filter="url(#ring-blur)">
<path d="M40 22C40 31.9411 31.9411 40 22 40C12.0589 40 4 31.9411 4 22C4 12.0589 12.0589 4 22 4C31.9411 4 40 12.0589 40 22ZM6.25 22C6.25 30.6985 13.3015 37.75 22 37.75C30.6985 37.75 37.75 30.6985 37.75 22C37.75 13.3015 30.6985 6.25 22 6.25C13.3015 6.25 6.25 13.3015 6.25 22Z" fill="context-fill"/>
</g>
</svg>
